# Blender v2.79 (sub 0) OBJ File: 'tool1.blend'
# www.blender.org
o Plane.010_Plane.012
v -0.287031 0.187020 0.420050
v -0.282422 0.184985 0.424392
v -0.267373 0.170866 0.419444
v -0.281632 0.185000 0.416585
v -0.499208 0.179237 1.337911
v -0.501377 0.177687 1.345144
v -0.497195 0.177836 1.344287
v -0.362202 0.123317 -0.167162
v -0.368035 0.124977 -0.158240
v -0.367289 0.125095 -0.149192
v -0.364555 0.126262 -0.150097
v -0.374887 0.136975 -0.080507
v -0.379950 0.133986 -0.097241
v -0.380980 0.134776 -0.096379
v -0.100480 0.042036 0.896194
v -0.088063 0.049926 0.894597
v -0.100688 0.044831 0.896327
v -0.111138 0.038339 0.878148
v -0.131231 0.037290 0.812268
v -0.122183 0.043709 0.825848
v -0.125900 0.039473 0.809319
v -0.128522 0.037594 0.802086
v -0.132883 0.036481 0.804396
v -0.139593 0.018608 0.711312
v -0.141494 0.015095 0.707878
v -0.143724 0.017888 0.715500
v -0.073622 0.064663 0.884190
v -0.080184 0.062626 0.887281
v -0.074088 0.062055 0.888432
v -0.040362 0.058245 0.866120
v -0.053281 0.058413 0.876973
v -0.040753 0.056610 0.865930
v -0.135336 0.015231 0.819300
v -0.137632 0.017965 0.819702
v -0.139336 0.016997 0.811891
v -0.136786 0.014139 0.811296
v -0.106988 0.022148 0.804935
v -0.110988 0.020434 0.798223
v -0.110558 0.023690 0.797298
v -0.106538 0.025412 0.803673
v 0.287031 0.187020 0.420050
v 0.281632 0.185000 0.416585
v 0.267373 0.170866 0.419444
v 0.282422 0.184985 0.424392
v 0.499208 0.179237 1.337911
v 0.497195 0.177836 1.344287
v 0.501377 0.177687 1.345144
v 0.362202 0.123317 -0.167162
v 0.364555 0.126262 -0.150097
v 0.367289 0.125095 -0.149192
v 0.368035 0.124977 -0.158240
v 0.374887 0.136975 -0.080507
v 0.380980 0.134776 -0.096379
v 0.379950 0.133986 -0.097241
v 0.100480 0.042036 0.896194
v 0.111138 0.038339 0.878148
v 0.100688 0.044831 0.896327
v 0.088063 0.049926 0.894597
v 0.131231 0.037290 0.812268
v 0.132883 0.036481 0.804396
v 0.128522 0.037594 0.802086
v 0.125900 0.039473 0.809319
v 0.122183 0.043709 0.825848
v 0.139593 0.018608 0.711312
v 0.143724 0.017888 0.715500
v 0.141494 0.015095 0.707878
v 0.073622 0.064663 0.884190
v 0.074088 0.062055 0.888432
v 0.080184 0.062626 0.887281
v 0.040362 0.058245 0.866120
v 0.040753 0.056610 0.865930
v 0.053282 0.058413 0.876973
v 0.135336 0.015231 0.819300
v 0.136786 0.014139 0.811296
v 0.139336 0.016997 0.811891
v 0.137632 0.017965 0.819702
v 0.106988 0.022148 0.804935
v 0.106538 0.025412 0.803673
v 0.110558 0.023690 0.797298
v 0.110988 0.020434 0.798223
v -0.742716 -0.002128 0.985116
v -0.732491 -0.003170 0.982017
v -0.732491 0.003171 0.982017
v -0.742716 0.002128 0.985116
v -0.069211 -0.003171 0.428649
v -0.071322 -0.003686 0.423359
v -0.071322 0.003686 0.423359
v -0.069211 0.003171 0.428649
v -0.171041 -0.003671 -0.951292
v -0.173957 -0.003506 -0.954332
v -0.173957 0.003506 -0.954332
v -0.171041 0.003671 -0.951292
v -0.287031 -0.187020 0.420050
v -0.281632 -0.185000 0.416585
v -0.267373 -0.170866 0.419444
v -0.282422 -0.184985 0.424392
v -0.744649 -0.001677 1.040430
v -0.742261 -0.003423 1.053187
v -0.742261 0.003423 1.053187
v -0.744649 0.001677 1.040430
v -0.170073 -0.001677 0.633630
v -0.170073 0.001677 0.633630
v -0.174822 0.003924 0.654477
v -0.174822 -0.003924 0.654477
v -0.534111 -0.003924 1.523962
v -0.534111 0.003924 1.523962
v -0.538368 0.003423 1.525182
v -0.538368 -0.003423 1.525182
v -0.499208 -0.179237 1.337911
v -0.497195 -0.177836 1.344287
v -0.501377 -0.177687 1.345144
v -0.362202 -0.123317 -0.167162
v -0.364555 -0.126262 -0.150097
v -0.367289 -0.125095 -0.149192
v -0.368035 -0.124977 -0.158240
v -0.159090 -0.003686 0.387515
v -0.164729 -0.004510 0.382114
v -0.173724 -0.004000 0.356723
v -0.173724 0.004000 0.356723
v -0.164729 0.004510 0.382114
v -0.159090 0.003686 0.387515
v -0.408644 -0.003506 -0.247632
v -0.407772 -0.004000 -0.238307
v -0.407772 0.004000 -0.238307
v -0.408644 0.003506 -0.247632
v -0.426557 -0.003562 -0.192809
v -0.426557 0.003562 -0.192809
v -0.423101 0.004000 -0.192229
v -0.423101 -0.004000 -0.192229
v -0.374887 -0.136975 -0.080507
v -0.380980 -0.134776 -0.096379
v -0.379950 -0.133986 -0.097241
v -0.167429 0.002884 0.283836
v -0.173812 0.004000 0.276708
v -0.173812 -0.004000 0.276708
v -0.167429 -0.002884 0.283836
v -0.277501 -0.003671 -0.348825
v -0.277501 0.003671 -0.348825
v -0.277211 0.002884 -0.337427
v -0.277211 -0.002884 -0.337427
v -0.100480 -0.042036 0.896194
v -0.111138 -0.038339 0.878148
v -0.100688 -0.044831 0.896327
v -0.088063 -0.049926 0.894597
v -0.131231 -0.037290 0.812268
v -0.132883 -0.036481 0.804396
v -0.128522 -0.037594 0.802086
v -0.125900 -0.039473 0.809319
v -0.122183 -0.043709 0.825848
v -0.139593 -0.018608 0.711312
v -0.143724 -0.017888 0.715500
v -0.141494 -0.015095 0.707878
v -0.073622 -0.064663 0.884190
v -0.074088 -0.062055 0.888432
v -0.080184 -0.062626 0.887281
v -0.040362 -0.058245 0.866120
v -0.040753 -0.056610 0.865930
v -0.053282 -0.058413 0.876973
v -0.135336 -0.015231 0.819300
v -0.136786 -0.014139 0.811296
v -0.139336 -0.016997 0.811891
v -0.137632 -0.017965 0.819702
v -0.106988 -0.022148 0.804935
v -0.106538 -0.025412 0.803673
v -0.110558 -0.023690 0.797298
v -0.110988 -0.020434 0.798223
v 0.742716 -0.002128 0.985116
v 0.742716 0.002128 0.985116
v 0.732491 0.003170 0.982017
v 0.732491 -0.003171 0.982017
v 0.069211 -0.003171 0.428649
v 0.069211 0.003171 0.428649
v 0.071322 0.003686 0.423359
v 0.071322 -0.003686 0.423359
v 0.171041 -0.003671 -0.951292
v 0.171041 0.003671 -0.951292
v 0.173957 0.003506 -0.954332
v 0.173957 -0.003506 -0.954332
v 0.287031 -0.187020 0.420050
v 0.282422 -0.184985 0.424392
v 0.267373 -0.170866 0.419444
v 0.281632 -0.185000 0.416585
v 0.744649 -0.001677 1.040430
v 0.744649 0.001677 1.040430
v 0.742261 0.003423 1.053187
v 0.742261 -0.003423 1.053187
v 0.170073 -0.001677 0.633630
v 0.174822 -0.003924 0.654477
v 0.174822 0.003924 0.654477
v 0.170073 0.001677 0.633630
v 0.534111 -0.003924 1.523962
v 0.538368 -0.003423 1.525182
v 0.538368 0.003423 1.525182
v 0.534111 0.003924 1.523962
v 0.499208 -0.179237 1.337911
v 0.501377 -0.177687 1.345144
v 0.497195 -0.177836 1.344287
v 0.362202 -0.123317 -0.167162
v 0.368035 -0.124977 -0.158240
v 0.367289 -0.125095 -0.149192
v 0.364555 -0.126262 -0.150097
v 0.159090 -0.003686 0.387515
v 0.159090 0.003686 0.387515
v 0.164729 0.004510 0.382114
v 0.173724 0.004000 0.356723
v 0.173724 -0.004000 0.356723
v 0.164729 -0.004510 0.382114
v 0.408644 -0.003506 -0.247632
v 0.408644 0.003506 -0.247632
v 0.407772 0.004000 -0.238307
v 0.407772 -0.004000 -0.238307
v 0.426557 -0.003562 -0.192809
v 0.423101 -0.004000 -0.192229
v 0.423101 0.004000 -0.192229
v 0.426557 0.003562 -0.192809
v 0.374887 -0.136975 -0.080507
v 0.379950 -0.133986 -0.097241
v 0.380980 -0.134776 -0.096379
v 0.167429 0.002884 0.283836
v 0.167429 -0.002884 0.283836
v 0.173812 -0.004000 0.276708
v 0.173812 0.004000 0.276708
v 0.277501 -0.003671 -0.348825
v 0.277211 -0.002884 -0.337427
v 0.277211 0.002884 -0.337427
v 0.277501 0.003671 -0.348825
v 0.100480 -0.042036 0.896194
v 0.088063 -0.049926 0.894597
v 0.100688 -0.044831 0.896327
v 0.111138 -0.038339 0.878148
v 0.131231 -0.037290 0.812268
v 0.122183 -0.043709 0.825848
v 0.125900 -0.039473 0.809319
v 0.128522 -0.037594 0.802086
v 0.132883 -0.036481 0.804396
v 0.139593 -0.018608 0.711312
v 0.141494 -0.015095 0.707878
v 0.143724 -0.017888 0.715500
v 0.073622 -0.064663 0.884190
v 0.080184 -0.062626 0.887281
v 0.074088 -0.062055 0.888432
v 0.040362 -0.058245 0.866120
v 0.053281 -0.058413 0.876973
v 0.040753 -0.056610 0.865930
v 0.135336 -0.015231 0.819300
v 0.137632 -0.017965 0.819702
v 0.139336 -0.016997 0.811891
v 0.136786 -0.014139 0.811296
v 0.106988 -0.022148 0.804935
v 0.110988 -0.020434 0.798223
v 0.110558 -0.023690 0.797298
v 0.106538 -0.025412 0.803673
v -0.367306 0.046812 -0.742070
v -0.372211 0.045751 -0.745219
v -0.374651 0.045723 -0.735380
v -0.249499 0.022530 -1.033771
v -0.238222 0.022386 -1.045604
v -0.240880 0.020362 -1.047797
v -0.279991 0.021276 -1.019034
v -0.278001 0.020362 -1.017473
v -0.266310 0.020676 -1.036522
v 0.367306 0.046812 -0.742070
v 0.374651 0.045723 -0.735380
v 0.372211 0.045751 -0.745219
v 0.249499 0.022530 -1.033771
v 0.240880 0.020362 -1.047797
v 0.238222 0.022386 -1.045604
v 0.279991 0.021276 -1.019034
v 0.266310 0.020676 -1.036522
v 0.278001 0.020362 -1.017473
v -0.184455 -0.003197 -1.243684
v -0.184455 0.003197 -1.243684
v -0.168779 0.002220 -1.265861
v -0.168779 -0.002220 -1.265861
v -0.407858 -0.002220 -0.373588
v -0.407858 0.002220 -0.373588
v -0.414044 0.002406 -0.377439
v -0.414044 -0.002406 -0.377439
v -0.430255 -0.002406 -0.696211
v -0.430255 0.002406 -0.696211
v -0.426837 0.003197 -0.706739
v -0.426836 -0.003197 -0.706739
v -0.367306 -0.046812 -0.742070
v -0.374651 -0.045723 -0.735380
v -0.372211 -0.045751 -0.745219
v -0.315967 -0.003197 -0.976772
v -0.310560 -0.004000 -0.979223
v -0.310560 0.004000 -0.979223
v -0.315967 0.003197 -0.976772
v -0.249499 -0.022530 -1.033771
v -0.240880 -0.020362 -1.047797
v -0.238222 -0.022386 -1.045604
v -0.189561 -0.002220 -1.102769
v -0.201397 -0.004000 -1.094180
v -0.201397 0.004000 -1.094180
v -0.189561 0.002220 -1.102769
v -0.279991 -0.021276 -1.019034
v -0.266310 -0.020676 -1.036522
v -0.278001 -0.020362 -1.017473
v -0.221774 -0.002220 -1.088840
v -0.221774 0.002220 -1.088840
v -0.238518 0.004000 -1.063855
v -0.238518 -0.004000 -1.063855
v -0.287970 -0.003197 -0.988577
v -0.287970 0.003197 -0.988577
v -0.273439 0.004000 -1.009548
v -0.273439 -0.004000 -1.009548
v 0.184455 -0.003197 -1.243684
v 0.168779 -0.002220 -1.265861
v 0.168779 0.002220 -1.265861
v 0.184455 0.003197 -1.243684
v 0.407858 -0.002220 -0.373588
v 0.414044 -0.002406 -0.377439
v 0.414044 0.002406 -0.377439
v 0.407858 0.002220 -0.373588
v 0.430255 -0.002406 -0.696211
v 0.426837 -0.003197 -0.706739
v 0.426836 0.003197 -0.706739
v 0.430255 0.002406 -0.696211
v 0.367306 -0.046812 -0.742070
v 0.372211 -0.045751 -0.745219
v 0.374651 -0.045723 -0.735380
v 0.315967 -0.003197 -0.976772
v 0.315967 0.003197 -0.976772
v 0.310560 0.004000 -0.979223
v 0.310560 -0.004000 -0.979223
v 0.249499 -0.022530 -1.033771
v 0.238222 -0.022386 -1.045604
v 0.240880 -0.020362 -1.047797
v 0.189561 -0.002220 -1.102769
v 0.189561 0.002220 -1.102769
v 0.201397 0.004000 -1.094180
v 0.201397 -0.004000 -1.094180
v 0.279991 -0.021276 -1.019034
v 0.278001 -0.020362 -1.017473
v 0.266310 -0.020676 -1.036522
v 0.221774 -0.002220 -1.088840
v 0.238518 -0.004000 -1.063855
v 0.238518 0.004000 -1.063855
v 0.221774 0.002220 -1.088840
v 0.287970 -0.003197 -0.988577
v 0.273439 -0.004000 -1.009548
v 0.273439 0.004000 -1.009548
v 0.287970 0.003197 -0.988577
v -0.254921 0.105204 1.392213
v -0.229475 0.100915 1.395621
v -0.250152 0.107074 1.385865
v -0.257814 0.105723 1.386542
v 0.259090 0.074479 1.169577
v 0.243841 0.073359 1.153080
v 0.256701 0.075330 1.171486
v 0.160832 0.052768 1.585309
v 0.185003 0.057434 1.589205
v 0.203230 0.056581 1.588244
v 0.202751 0.056184 1.585249
v -0.495500 -0.002520 1.523889
v -0.490738 -0.002812 1.528481
v -0.490738 0.002812 1.528481
v -0.495500 0.002520 1.523889
v 0.418101 -0.003675 1.525032
v 0.456330 -0.000988 1.527048
v 0.456330 0.000988 1.527048
v 0.418101 0.003675 1.525032
v -0.124525 -0.002520 0.938451
v -0.124525 0.002520 0.938451
v -0.113140 0.000988 0.925259
v -0.113140 -0.000988 0.925259
v 0.486304 -0.003122 1.505746
v 0.483292 -0.003968 1.495977
v 0.483292 0.003968 1.495977
v 0.486304 0.003122 1.505746
v -0.035707 -0.003122 0.939737
v -0.035707 0.003122 0.939737
v -0.048409 0.001190 0.921457
v -0.048409 -0.001190 0.921457
v 0.103189 -0.001190 0.921457
v 0.103189 0.001190 0.921457
v 0.121671 0.003968 0.943279
v 0.121671 -0.003968 0.943279
v -0.254921 -0.105204 1.392213
v -0.257814 -0.105723 1.386542
v -0.250152 -0.107074 1.385865
v -0.229475 -0.100915 1.395621
v 0.259090 -0.074479 1.169577
v 0.256701 -0.075330 1.171486
v 0.243841 -0.073359 1.153080
v -0.475346 -0.001292 1.556202
v -0.475346 0.001292 1.556202
v -0.414643 0.003843 1.556548
v -0.414643 -0.003843 1.556548
v 0.432958 -0.003872 1.554497
v 0.432958 0.003872 1.554497
v 0.436871 0.003489 1.557034
v 0.436871 -0.003489 1.557034
v -0.057375 -0.001292 1.686083
v -0.025983 -0.003489 1.679860
v -0.025983 0.003489 1.679860
v -0.057375 0.001292 1.686083
v 0.160832 -0.052768 1.585309
v 0.202751 -0.056184 1.585249
v 0.203230 -0.056581 1.588244
v 0.185003 -0.057434 1.589205
v -0.017663 -0.003675 1.466334
v -0.017663 0.003675 1.466334
v -0.031887 0.002812 1.466673
v -0.031887 -0.002812 1.466673
v 0.010203 -0.003872 1.586042
v -0.019253 -0.003843 1.586051
v -0.019253 0.003843 1.586051
v 0.010203 0.003872 1.586042
vt 0.398828 0.232687
vt 0.494926 0.254572
vt 0.462263 0.262202
vt 0.324158 0.413496
vt 0.391262 0.231925
vt 0.459736 0.263789
vt 0.163254 0.755241
vt 0.061901 0.671978
vt 0.359944 0.609851
vt 0.003848 0.632256
vt 0.351756 0.609508
vt 0.059844 0.670353
vt 0.591320 0.592002
vt 0.463448 0.682540
vt 0.656685 0.664958
vt 0.855928 0.354494
vt 0.944625 0.653654
vt 0.892869 0.582894
vt 0.501739 0.946130
vt 0.530149 0.893765
vt 0.323596 0.946130
vt 0.321505 0.419564
vt 0.454532 0.272662
vt 0.321797 0.460313
vt 0.946009 0.660191
vt 0.855624 0.825564
vt 0.892628 0.587223
vt 0.091831 0.093555
vt 0.061402 0.088058
vt 0.060514 0.077420
vt 0.089927 0.071136
vt 0.391694 0.228980
vt 0.322864 0.004375
vt 0.496208 0.252782
vt 0.533640 0.893155
vt 0.505141 0.945698
vt 0.781349 0.907132
vt 0.041856 0.486795
vt 0.048089 0.461215
vt 0.039622 0.461190
vt 0.062987 0.711206
vt 0.064155 0.701723
vt 0.031797 0.703094
vt 0.033587 0.717274
vt 0.099903 0.714951
vt 0.066999 0.702256
vt 0.065704 0.711155
vt 0.505287 0.168880
vt 0.505833 0.634136
vt 0.554237 0.605014
vt 0.640840 0.422505
vt 0.040143 0.458156
vt 0.048673 0.458181
vt 0.052901 0.424046
vt 0.029309 0.699806
vt 0.031416 0.711650
vt 0.030235 0.702828
vt 0.052571 0.496087
vt 0.049524 0.467677
vt 0.042846 0.495034
vt 0.058483 0.087017
vt 0.022100 0.071136
vt 0.057670 0.077331
vt 0.762682 0.847625
vt 0.604064 0.764235
vt 0.585822 0.846381
vt 0.582838 0.846419
vt 0.594352 0.749306
vt 0.334672 0.840859
vt 0.619077 0.360132
vt 0.764506 0.152792
vt 0.763452 0.439854
vt 0.783663 0.003669
vt 0.865187 0.053368
vt 0.865187 0.350409
vt 0.763198 0.442774
vt 0.736971 0.517570
vt 0.621502 0.364537
vt 0.994561 0.709806
vt 0.978630 0.476860
vt 0.922748 0.406393
vt 0.315475 0.792236
vt 0.472913 0.748947
vt 0.279334 0.828974
vt 0.768446 0.847447
vt 0.797529 0.807625
vt 0.612798 0.765618
vt 0.921339 0.399931
vt 0.978947 0.472608
vt 0.995133 0.249183
vt 0.002789 0.664292
vt 0.029080 0.660610
vt 0.018835 0.696028
vt 0.006356 0.697767
vt 0.585580 0.839145
vt 0.602490 0.763054
vt 0.596168 0.749852
vt 0.275779 0.829367
vt 0.003417 0.749100
vt 0.312035 0.792502
vt 0.019165 0.151282
vt 0.029118 0.186827
vt 0.016436 0.187309
vt 0.014329 0.151294
vt 0.013567 0.186839
vt 0.003094 0.183805
vt 0.012348 0.157667
vt 0.007575 0.700674
vt 0.018937 0.699087
vt 0.029346 0.733959
vt 0.191789 0.465429
vt 0.191789 0.002788
vt 0.235750 0.029066
vt 0.324968 0.210560
vt 0.038931 0.607097
vt 0.009962 0.614269
vt 0.006102 0.607097
vt 0.007300 0.136029
vt 0.003961 0.133122
vt 0.006424 0.126343
vt 0.003183 0.175414
vt 0.005570 0.149796
vt 0.011828 0.150990
vt 0.006674 0.146915
vt 0.026896 0.115978
vt 0.012983 0.148121
vt 0.329487 0.209443
vt 0.340455 0.196101
vt 0.374641 0.202220
vt 0.326707 0.211880
vt 0.375797 0.204023
vt 0.195229 0.463398
vt 0.854532 0.354329
vt 0.891486 0.582729
vt 0.897985 0.648347
vt 0.004420 0.630885
vt 0.085995 0.608137
vt 0.352340 0.608137
vt 0.484312 0.566484
vt 0.469815 0.645342
vt 0.340851 0.496816
vt 0.486594 0.856658
vt 0.323114 0.943273
vt 0.529654 0.890908
vt 0.239698 0.034347
vt 0.338081 0.194514
vt 0.326250 0.208923
vt 0.369453 0.436625
vt 0.323219 0.460821
vt 0.455966 0.273170
vt 0.902345 0.328960
vt 0.915484 0.399123
vt 0.954494 0.161252
vt 0.013255 0.766934
vt 0.009675 0.792501
vt 0.045004 0.781837
vt 0.046705 0.769701
vt 0.338198 0.492563
vt 0.484363 0.282379
vt 0.484363 0.563538
vt 0.868070 0.365406
vt 0.953415 0.634366
vt 0.900911 0.332070
vt 0.041840 0.912748
vt 0.077448 0.902871
vt 0.076851 0.915858
vt 0.040761 0.917902
vt 0.076331 0.918752
vt 0.073652 0.929086
vt 0.047032 0.919933
vt 0.049599 0.770882
vt 0.048063 0.781926
vt 0.083037 0.792475
vt 0.185873 0.467825
vt 0.106926 0.223061
vt 0.180351 0.038355
vt 0.185873 0.003077
vt 0.005559 0.902871
vt 0.038894 0.912748
vt 0.037803 0.917318
vt 0.010614 0.772037
vt 0.008736 0.779286
vt 0.008520 0.786928
vt 0.065312 0.928971
vt 0.039986 0.926433
vt 0.040430 0.920415
vt 0.038555 0.152712
vt 0.037019 0.116456
vt 0.032437 0.151113
vt 0.097722 0.220674
vt 0.004112 0.200388
vt 0.038121 0.194815
vt 0.104615 0.224216
vt 0.182738 0.465806
vt 0.002792 0.202153
vt 0.475013 0.852437
vt 0.176018 0.940296
vt 0.244556 0.891537
vt 0.780921 0.004456
vt 0.862458 0.351183
vt 0.741288 0.088799
vt 0.467292 0.725731
vt 0.386339 0.629329
vt 0.528670 0.763332
vt 0.310004 0.839536
vt 0.279156 0.830485
vt 0.472735 0.750458
vt 0.177063 0.043763
vt 0.105072 0.221246
vt 0.040724 0.193330
vt 0.762517 0.750372
vt 0.612620 0.762724
vt 0.797351 0.804730
vt 0.169518 0.941604
vt 0.003105 0.852437
vt 0.240189 0.891334
vt 0.091965 0.121049
vt 0.061422 0.121049
vt 0.058108 0.111592
vt 0.084996 0.101119
vt 0.382010 0.627006
vt 0.464499 0.725236
vt 0.162762 0.763548
vt 0.205558 0.938951
vt 0.172603 0.942658
vt 0.476168 0.853466
vt 0.010982 0.965975
vt 0.036675 0.965975
vt 0.033096 0.966521
vt 0.054637 0.048252
vt 0.056668 0.057380
vt 0.024856 0.056554
vt 0.025516 0.041778
vt 0.090842 0.042210
vt 0.059410 0.056732
vt 0.057303 0.048239
vt 0.036028 0.966902
vt 0.039646 0.966343
vt 0.071966 0.974823
vt 0.093006 0.116289
vt 0.088956 0.104686
vt 0.093387 0.109154
vt 0.024653 0.058954
vt 0.050740 0.059563
vt 0.023371 0.064857
vt 0.035863 0.968311
vt 0.074429 0.976816
vt 0.039227 0.977108
vt 0.389396 0.230161
vt 0.059184 0.671622
vt 0.946948 0.657018
vt 0.946720 0.660471
vt 0.321086 0.419132
vt 0.041907 0.494754
vt 0.046274 0.496468
vt 0.049841 0.461050
vt 0.049867 0.458016
vt 0.002773 0.004312
vt 0.003941 0.002661
vt 0.003941 0.005327
vt 0.031467 0.700962
vt 0.033625 0.717477
vt 0.061034 0.089251
vt 0.058127 0.088337
vt 0.062454 0.711498
vt 0.065285 0.711485
vt 0.584133 0.847879
vt 0.764506 0.442037
vt 0.308531 0.790827
vt 0.315132 0.791068
vt 0.768065 0.847879
vt 0.002789 0.183450
vt 0.007855 0.186154
vt 0.014913 0.148324
vt 0.029118 0.115496
vt 0.028826 0.113642
vt 0.014989 0.188236
vt 0.006792 0.120974
vt 0.007300 0.120821
vt 0.007029 0.700725
vt 0.005899 0.697856
vt 0.007537 0.615767
vt 0.007969 0.614561
vt 0.009657 0.615450
vt 0.320655 0.002903
vt 0.324006 0.004781
vt 0.319893 0.002636
vt 0.497338 0.253189
vt 0.496246 0.255042
vt 0.855560 0.353135
vt 0.856893 0.353288
vt 0.458535 0.684418
vt 0.463511 0.685028
vt 0.458510 0.683200
vt 0.360185 0.609267
vt 0.003087 0.633450
vt 0.003582 0.632256
vt 0.485658 0.565709
vt 0.902764 0.335447
vt 0.901177 0.328617
vt 0.463570 0.262672
vt 0.461349 0.264360
vt 0.533209 0.890655
vt 0.321937 0.460783
vt 0.320655 0.460326
vt 0.235915 0.028685
vt 0.320460 0.946942
vt 0.320118 0.944886
vt 0.891537 0.587096
vt 0.035813 0.187978
vt 0.035445 0.180310
vt 0.034772 0.188105
vt 0.034810 0.188587
vt 0.037562 0.919260
vt 0.005977 0.905118
vt 0.003819 0.903125
vt 0.077892 0.917280
vt 0.009396 0.792844
vt 0.039837 0.155708
vt 0.039964 0.152573
vt 0.038505 0.155784
vt 0.045029 0.782789
vt 0.047987 0.782802
vt 0.332578 0.840402
vt 0.332667 0.841951
vt 0.334533 0.838561
vt 0.594213 0.747008
vt 0.596003 0.747186
vt 0.997214 0.709565
vt 0.994193 0.710707
vt 0.996719 0.710491
vt 0.618442 0.360221
vt 0.620220 0.364727
vt 0.865619 0.358800
vt 0.866787 0.358457
vt 0.781390 0.003453
vt 0.783777 0.002768
vt 0.466454 0.726988
vt 0.169150 0.942416
vt 0.602325 0.760388
vt 0.603861 0.760972
vt 0.275627 0.830688
vt 0.184667 0.003001
vt 0.183487 0.002785
vt 0.184820 0.002886
vt 0.179958 0.037923
vt 0.475528 0.746980
vt 0.475401 0.748059
vt 0.981283 0.476632
vt 0.981029 0.472430
vt 0.003797 0.967092
vt 0.004012 0.969999
vt 0.003949 0.966508
vt 0.056313 0.059335
vt 0.059195 0.058408
vt 0.092061 0.041778
vt 0.089992 0.044190
vt 0.023282 0.057100
vt 0.085376 0.100598
vt 0.032880 0.967816
vt 0.055570 0.111566
vt 0.055900 0.110335
vt 0.058337 0.110297
vt 0.847874 0.758859
vt 0.847874 0.341106
vt 0.846363 0.341398
vt 0.845335 0.759354
vt 0.356293 0.590961
vt 0.356318 0.592167
vt 0.656735 0.667446
vt 0.588794 0.590961
vt 0.780918 0.904619
vt 0.501967 0.946942
vt 0.854532 0.825449
vt 0.084151 0.093428
vt 0.052901 0.497179
vt 0.091666 0.077318
vt 0.092771 0.090368
vt 0.057986 0.699806
vt 0.098913 0.713199
vt 0.066694 0.700771
vt 0.024220 0.073548
vt 0.101211 0.715471
vt 0.504475 0.168791
vt 0.504475 0.633996
vt 0.642350 0.421261
vt 0.508588 0.170949
vt 0.558071 0.599708
vt 0.641932 0.424231
vt 0.763871 0.152893
vt 0.735689 0.517760
vt 0.865479 0.052556
vt 0.866787 0.055184
vt 0.004547 0.748059
vt 0.003265 0.750420
vt 0.507102 0.634237
vt 0.554352 0.605421
vt 0.997214 0.249006
vt 0.003196 0.672403
vt 0.002603 0.131751
vt 0.007778 0.661613
vt 0.023088 0.659468
vt 0.029346 0.660331
vt 0.019635 0.696041
vt 0.027315 0.731763
vt 0.040098 0.607909
vt 0.003652 0.607198
vt 0.471199 0.644403
vt 0.485658 0.290326
vt 0.954494 0.633198
vt 0.193122 0.002712
vt 0.373185 0.430925
vt 0.490009 0.856303
vt 0.952362 0.164019
vt 0.915509 0.403477
vt 0.078248 0.909066
vt 0.076064 0.924325
vt 0.038327 0.113676
vt 0.081272 0.792844
vt 0.032437 0.154197
vt 0.527705 0.764526
vt 0.170925 0.764526
vt 0.756614 0.748379
vt 0.306563 0.839764
vt 0.005822 0.854900
vt 0.023777 0.047871
vt 0.022418 0.061124
vt 0.030733 0.064273
vt 0.026639 0.101131
vt 0.024811 0.101893
vt 0.036574 0.977476
vt 0.732849 0.536399
vt 0.787524 0.729979
vt 0.685165 0.560355
vt 0.663685 0.575169
vt 0.668865 0.673057
vt 0.679211 0.656833
vt 0.663533 0.571665
vt 0.685393 0.556584
vt 0.664663 0.438093
vt 0.669055 0.677589
vt 0.671213 0.691197
vt 0.677814 0.663853
vt 0.111589 0.939083
vt 0.095886 0.947804
vt 0.020048 0.939083
vt 0.110334 0.994179
vt 0.126151 0.996007
vt 0.087801 0.985978
vt 0.102285 0.993417
vt 0.076858 0.984176
vt 0.008409 0.994407
vt 0.072385 0.854737
vt 0.212457 0.880608
vt 0.337093 0.866441
vt 0.362913 0.854737
vt 0.691402 0.171668
vt 0.673541 0.054320
vt 0.661709 0.033463
vt 0.669250 0.151141
vt 0.669085 0.155013
vt 0.655032 0.292000
vt 0.691643 0.175908
vt 0.660668 0.027509
vt 0.670684 0.045167
vt 0.655362 0.007020
vt 0.132640 0.740579
vt 0.020280 0.740579
vt 0.111757 0.748576
vt 0.017481 0.020943
vt 0.009864 0.042613
vt 0.012987 0.004199
vt 0.017481 0.029106
vt 0.015095 0.123833
vt 0.008887 0.053556
vt 0.145042 0.035216
vt 0.033431 0.035216
vt 0.123956 0.027828
vt 0.533575 0.997007
vt 0.649946 0.978004
vt 0.670994 0.966553
vt 0.554724 0.975909
vt 0.550878 0.975731
vt 0.413446 0.958289
vt 0.529348 0.997210
vt 0.106563 0.987451
vt 0.087065 0.984658
vt 0.125415 0.994687
vt 0.019009 0.002793
vt 0.038115 0.005217
vt 0.131483 0.002793
vt 0.412583 0.955750
vt 0.554064 0.973713
vt 0.676376 0.963874
vt 0.700877 0.955750
vt 0.115959 0.026228
vt 0.023555 0.033782
vt 0.092664 0.022509
vt 0.683425 0.674174
vt 0.680633 0.663181
vt 0.674032 0.690525
vt 0.318470 0.955899
vt 0.336648 0.964582
vt 0.455571 0.980603
vt 0.435780 0.974789
vt 0.332789 0.964760
vt 0.314281 0.955924
vt 0.198443 0.994643
vt 0.002781 0.022480
vt 0.010106 0.004504
vt 0.006970 0.042918
vt 0.197630 0.997207
vt 0.487447 0.997207
vt 0.461042 0.983294
vt 0.335937 0.966448
vt 0.046265 0.006957
vt 0.072085 0.015690
vt 0.141575 0.004494
vt 0.668348 0.028550
vt 0.656873 0.007223
vt 0.672182 0.045370
vt 0.655507 0.889284
vt 0.654631 0.891048
vt 0.658439 0.890883
vt 0.537625 0.874494
vt 0.532433 0.871867
vt 0.531671 0.872616
vt 0.110118 0.995207
vt 0.667130 0.151814
vt 0.659208 0.028017
vt 0.103696 0.750036
vt 0.112062 0.749262
vt 0.020721 0.936861
vt 0.012762 0.939514
vt 0.013219 0.937966
vt 0.665095 0.435960
vt 0.663533 0.436329
vt 0.666364 0.437700
vt 0.687082 0.556178
vt 0.687424 0.559809
vt 0.126989 0.996172
vt 0.127586 0.997226
vt 0.676846 0.965322
vt 0.672026 0.693203
vt 0.670452 0.693571
vt 0.124274 0.027028
vt 0.076452 0.983439
vt 0.681458 0.656300
vt 0.020623 0.739398
vt 0.010556 0.741048
vt 0.010328 0.741861
vt 0.653496 0.292952
vt 0.655946 0.292127
vt 0.652658 0.292838
vt 0.692544 0.176023
vt 0.692608 0.171833
vt 0.010918 0.003019
vt 0.013216 0.002778
vt 0.461652 0.982443
vt 0.653496 0.002881
vt 0.652658 0.002767
vt 0.037912 0.006246
vt 0.007287 0.053734
vt 0.674747 0.054485
vt 0.506409 0.857699
vt 0.791364 0.858486
vt 0.791072 0.857699
vt 0.506104 0.856912
vt 0.790412 0.860962
vt 0.112262 0.936861
vt 0.018158 0.996172
vt 0.007990 0.993671
vt 0.510560 0.861114
vt 0.362939 0.853124
vt 0.072423 0.853124
vt 0.132970 0.739398
vt 0.013495 0.123998
vt 0.130964 0.742026
vt 0.696726 0.958733
vt 0.659023 0.975008
vt 0.103620 0.023728
vt 0.143366 0.033731
vt 0.483080 0.993742
vt 0.670215 0.034605
vt 0.060800 0.013989
vt 0.020622 0.004062
vt 0.004018 0.600412
vt 0.100256 0.435166
vt 0.307609 0.600412
vt 0.268887 0.504761
vt 0.314067 0.576206
vt 0.286177 0.462208
vt 0.715176 0.732192
vt 0.624308 0.702537
vt 0.471085 0.694667
vt 0.597569 0.005014
vt 0.335236 0.005014
vt 0.475892 0.040077
vt 0.725446 0.733017
vt 0.758045 0.693258
vt 0.632445 0.702677
vt 0.494757 0.319738
vt 0.491596 0.459772
vt 0.491596 0.263488
vt 0.158227 0.994876
vt 0.004889 0.947373
vt 0.092456 0.960880
vt 0.006298 0.946396
vt 0.147398 0.958354
vt 0.092583 0.959700
vt 0.168256 0.997212
vt 0.098702 0.961261
vt 0.309825 0.946243
vt 0.285542 0.456039
vt 0.315133 0.304059
vt 0.205223 0.469800
vt 0.502140 0.111554
vt 0.390441 0.086419
vt 0.640460 0.004018
vt 0.390593 0.088882
vt 0.501417 0.113814
vt 0.530424 0.178264
vt 0.013652 0.844086
vt 0.155031 0.813886
vt 0.299140 0.844086
vt 0.646731 0.002736
vt 0.646731 0.309615
vt 0.504552 0.113268
vt 0.056225 0.393273
vt 0.005154 0.541139
vt 0.017989 0.299816
vt 0.040133 0.801763
vt 0.146526 0.812997
vt 0.005223 0.843185
vt 0.714414 0.733487
vt 0.470323 0.695962
vt 0.609976 0.726822
vt 0.155828 0.958100
vt 0.086566 0.956551
vt 0.288549 0.946281
vt 0.005154 0.220310
vt 0.016465 0.293748
vt 0.017163 0.369369
vt 0.534460 0.181565
vt 0.506913 0.120364
vt 0.637236 0.300348
vt 0.053787 0.381899
vt 0.017633 0.293506
vt 0.006157 0.218977
vt 0.101284 0.432678
vt 0.108292 0.439127
vt 0.098910 0.433237
vt 0.624333 0.701319
vt 0.105989 0.959585
vt 0.203434 0.469432
vt 0.203370 0.471590
vt 0.205376 0.472009
vt 0.311464 0.575660
vt 0.316733 0.581017
vt 0.317431 0.581156
vt 0.313356 0.303691
vt 0.317431 0.300568
vt 0.316733 0.300416
vt 0.466819 0.694273
vt 0.467416 0.693258
vt 0.598026 0.002793
vt 0.605707 0.004824
vt 0.605872 0.003973
vt 0.725217 0.733410
vt 0.154955 0.812845
vt 0.309343 0.946180
vt 0.289971 0.946510
vt 0.004876 0.946180
vt 0.003607 0.947183
vt 0.059754 0.443307
vt 0.062648 0.445820
vt 0.064743 0.447216
vt 0.060528 0.443827
vt 0.016491 0.309045
vt 0.266272 0.504215
vt 0.266856 0.503174
vt 0.264850 0.502755
vt 0.145964 0.958125
vt 0.157249 0.958328
vt 0.335680 0.002793
vt 0.307799 0.600729
vt 0.004209 0.600729
vt 0.757817 0.693638
vt 0.097793 0.354810
vt 0.100167 0.354873
vt 0.005288 0.594001
vt 0.298355 0.590586
vt 0.484093 0.039874
vt 0.064743 0.343134
vt 0.063968 0.342613
vt 0.156945 0.994673
vt 0.185373 0.492267
vt 0.182441 0.488649
vt 0.051012 0.801877
vt 0.295662 0.842347
vt 0.005319 0.519343
vt 0.071904 0.956462
vn 0.3484 0.3885 -0.8530
vn 0.3483 0.3886 -0.8531
vn 0.3484 0.3886 -0.8530
vn 0.8032 0.5594 -0.2047
vn -0.2422 0.9079 -0.3421
vn 0.9065 0.1946 0.3746
vn -0.7856 0.5174 0.3394
vn 0.9037 0.3973 0.1597
vn -0.9105 -0.0000 0.4136
vn -0.9104 0.0000 0.4136
vn 0.9105 -0.0000 -0.4136
vn 0.7099 0.6930 -0.1254
vn 0.7099 0.6930 -0.1255
vn 0.3184 -0.9307 0.1801
vn 0.5078 0.6097 0.6086
vn -0.8318 0.4814 -0.2762
vn -0.8318 0.4814 -0.2763
vn -0.8813 0.3929 0.2625
vn 0.1246 0.8709 -0.4755
vn 0.5551 0.7980 -0.2346
vn 0.5972 0.7955 -0.1022
vn -0.9429 0.3300 0.0460
vn 0.4679 -0.0924 0.8789
vn -0.6017 0.7802 0.1711
vn 0.2277 -0.9735 -0.0194
vn -0.8032 0.5594 -0.2047
vn -0.5078 0.6097 0.6086
vn 0.2422 0.9079 -0.3421
vn -0.9065 0.1946 0.3746
vn 0.7856 0.5174 0.3394
vn -0.9037 0.3973 0.1597
vn 0.9105 -0.0000 0.4136
vn 0.9104 0.0000 0.4136
vn -0.9105 -0.0000 -0.4136
vn -0.7099 0.6930 -0.1255
vn -0.7099 0.6930 -0.1254
vn -0.7099 0.6931 -0.1254
vn -0.3184 -0.9307 0.1801
vn -0.3484 0.3885 -0.8530
vn -0.3484 0.3886 -0.8530
vn 0.8318 0.4814 -0.2763
vn 0.8318 0.4814 -0.2762
vn -0.1246 0.8709 -0.4755
vn 0.6017 0.7802 0.1711
vn -0.2277 -0.9735 -0.0194
vn -0.5972 -0.7955 -0.1022
vn -0.5551 0.7980 -0.2346
vn -0.5563 0.7971 -0.2351
vn -0.4679 -0.0924 0.8789
vn 0.8813 0.3929 0.2625
vn 0.9429 0.3300 0.0460
vn 0.3484 -0.3885 -0.8530
vn 0.3484 -0.3886 -0.8530
vn 0.5078 -0.6097 0.6086
vn 0.9037 -0.3973 0.1597
vn 0.9065 -0.1946 0.3746
vn -0.7856 -0.5174 0.3394
vn 0.8032 -0.5594 -0.2047
vn 0.7099 -0.6930 -0.1255
vn 0.7099 -0.6930 -0.1254
vn 0.7099 -0.6931 -0.1254
vn 0.3184 0.9307 0.1801
vn -0.2422 -0.9079 -0.3421
vn -0.8318 -0.4814 -0.2763
vn -0.8318 -0.4815 -0.2762
vn 0.1246 -0.8709 -0.4755
vn -0.6017 -0.7802 0.1711
vn 0.2277 0.9735 -0.0194
vn 0.5972 -0.7955 -0.1022
vn 0.5551 -0.7980 -0.2346
vn 0.5563 -0.7971 -0.2351
vn 0.4679 0.0924 0.8789
vn -0.8813 -0.3929 0.2625
vn -0.9429 -0.3300 0.0460
vn -0.3484 -0.3885 -0.8530
vn -0.3483 -0.3886 -0.8531
vn -0.3484 -0.3886 -0.8530
vn -0.5078 -0.6097 0.6086
vn -0.9037 -0.3973 0.1597
vn -0.9065 -0.1946 0.3746
vn 0.7856 -0.5174 0.3394
vn -0.8032 -0.5594 -0.2047
vn -0.7099 -0.6930 -0.1254
vn -0.7099 -0.6930 -0.1255
vn -0.3184 0.9307 0.1801
vn 0.2422 -0.9079 -0.3421
vn 0.8318 -0.4814 -0.2762
vn 0.8318 -0.4814 -0.2763
vn 0.8813 -0.3929 0.2625
vn -0.1246 -0.8709 -0.4755
vn -0.5551 -0.7980 -0.2346
vn 0.9429 -0.3300 0.0460
vn -0.4679 0.0924 0.8789
vn 0.6017 -0.7802 0.1711
vn -0.2277 0.9735 -0.0194
vn -0.5972 0.7956 -0.1021
vn 0.8033 0.5594 -0.2047
vn 0.9104 0.0000 -0.4137
vn -0.5972 0.7955 -0.1022
vn 0.4678 -0.0923 0.8790
vn -0.8813 0.3929 0.2626
vn 0.2278 -0.9735 -0.0193
vn -0.9429 0.3300 0.0459
vn 0.1247 0.8708 -0.4755
vn 0.3183 -0.9307 0.1802
vn 0.2278 -0.9735 -0.0194
vn 0.1246 0.8708 -0.4755
vn 0.5972 0.7956 -0.1021
vn -0.8033 0.5593 -0.2047
vn -0.9065 0.1946 0.3747
vn 0.7856 0.5173 0.3394
vn -0.8032 0.5594 -0.2048
vn 0.5972 0.7956 -0.1022
vn -0.9104 -0.0000 -0.4136
vn -0.4679 -0.0924 0.8790
vn 0.8813 0.3929 0.2626
vn -0.2278 -0.9735 -0.0193
vn -0.1246 0.8708 -0.4755
vn -0.1247 0.8708 -0.4755
vn -0.3183 -0.9307 0.1802
vn -0.4679 -0.0923 0.8789
vn -0.2278 -0.9735 -0.0194
vn -0.5972 0.7955 -0.1021
vn 0.5078 -0.6097 0.6087
vn 0.5078 0.6097 0.6087
vn -0.5972 -0.7956 -0.1021
vn 0.8033 -0.5593 -0.2047
vn -0.2422 -0.9079 -0.3420
vn -0.7856 -0.5173 0.3394
vn -0.7856 0.5173 0.3394
vn -0.2422 0.9079 -0.3420
vn 0.9065 -0.1945 0.3746
vn 0.9065 0.1945 0.3746
vn -0.7856 0.5173 0.3393
vn -0.7856 -0.5173 0.3393
vn 0.9065 -0.1946 0.3747
vn 0.8032 -0.5594 -0.2048
vn -0.5972 -0.7956 -0.1022
vn 0.9104 0.0000 -0.4136
vn 0.4679 0.0924 0.8790
vn -0.8813 -0.3929 0.2626
vn 0.2278 0.9735 -0.0193
vn 0.1246 -0.8708 -0.4755
vn 0.1247 -0.8708 -0.4755
vn 0.3183 0.9307 0.1802
vn 0.4679 0.0923 0.8789
vn 0.2278 0.9735 -0.0194
vn 0.5972 -0.7955 -0.1021
vn -0.5078 -0.6097 0.6087
vn -0.5078 0.6097 0.6087
vn 0.5972 -0.7956 -0.1021
vn -0.8033 -0.5594 -0.2047
vn 0.2422 0.9079 -0.3420
vn 0.7856 -0.5173 0.3394
vn 0.2422 -0.9079 -0.3420
vn -0.9065 -0.1945 0.3746
vn 0.7856 -0.5173 0.3393
vn 0.7856 0.5173 0.3393
vn -0.9065 0.1945 0.3746
vn -0.9104 -0.0000 -0.4137
vn -0.4678 0.0923 0.8790
vn 0.8813 -0.3929 0.2626
vn -0.2278 0.9735 -0.0193
vn 0.9429 -0.3300 0.0459
vn -0.1247 -0.8708 -0.4755
vn -0.3183 0.9307 0.1802
vn -0.2278 0.9735 -0.0194
vn -0.1246 -0.8708 -0.4755
vn -0.5972 0.7956 -0.1022
vn 0.5077 -0.6097 0.6086
vn 0.5077 0.6097 0.6086
vn -0.2422 0.9079 -0.3422
vn -0.2423 0.9079 -0.3421
vn -0.2421 -0.9079 -0.3421
vn -0.7856 -0.5174 0.3393
vn -0.7856 0.5174 0.3393
vn 0.9065 0.1946 0.3747
vn 0.9066 0.1946 0.3746
vn -0.6016 0.7802 0.1711
vn 0.5972 -0.7956 -0.1022
vn -0.5077 0.6097 0.6086
vn -0.5077 -0.6097 0.6086
vn 0.2422 -0.9079 -0.3422
vn 0.2423 -0.9079 -0.3421
vn 0.2421 0.9079 -0.3421
vn 0.7856 0.5174 0.3393
vn 0.7856 -0.5174 0.3393
vn -0.9066 0.1946 0.3746
vn 0.6016 0.7802 0.1711
vn -0.3183 -0.9307 0.1801
vn 0.9429 0.3300 0.0459
vn 0.9066 -0.1946 0.3746
vn -0.6016 -0.7802 0.1711
vn 0.3183 0.9307 0.1801
vn -0.9429 -0.3300 0.0459
vn -0.9065 -0.1946 0.3747
vn -0.9066 -0.1946 0.3746
vn 0.6016 -0.7802 0.1711
vn -0.7170 0.6009 -0.3533
vn -0.6008 0.7988 0.0305
vn -0.6008 0.7988 0.0306
vn -0.7615 0.0000 -0.6482
vn 0.7615 0.0000 0.6482
vn 0.5317 0.8318 0.1592
vn -0.5317 0.8318 0.1592
vn -0.5316 0.8319 0.1592
vn 0.7170 0.6009 -0.3533
vn 0.6008 0.7988 0.0305
vn 0.6008 0.7988 0.0306
vn 0.7615 -0.0000 -0.6482
vn -0.7615 0.0000 0.6482
vn -0.7170 -0.6009 -0.3533
vn -0.6008 -0.7988 0.0305
vn -0.6008 -0.7988 0.0306
vn 0.7170 -0.6009 -0.3533
vn 0.5317 -0.8318 0.1592
vn 0.6008 -0.7988 0.0305
vn 0.6008 -0.7988 0.0306
vn -0.5317 -0.8319 0.1592
vn -0.5317 -0.8318 0.1592
vn -0.5317 -0.8318 0.1591
vn 0.5317 0.8318 0.1591
vn 0.5317 -0.8318 0.1591
vn -0.6008 -0.7988 0.0302
vn -0.7171 -0.6009 -0.3530
vn -0.7170 0.6009 -0.3532
vn 0.5316 -0.8318 0.1594
vn 0.5317 0.8319 0.1592
vn 0.7171 0.6009 -0.3531
vn -0.5317 0.8318 0.1591
vn 0.7170 0.6009 -0.3532
vn -0.7170 -0.6009 -0.3532
vn 0.5317 -0.8319 0.1592
vn 0.7170 -0.6009 -0.3532
vn 0.1794 0.9690 -0.1698
vn -0.1227 0.3950 0.9105
vn -0.1226 0.3949 0.9105
vn 0.8302 0.1253 -0.5432
vn 0.8302 0.1254 -0.5432
vn 0.8302 0.1253 -0.5431
vn -0.5737 0.6251 0.5292
vn -0.5738 0.6251 0.5292
vn 0.0001 0.9547 -0.2975
vn -0.0000 0.9547 -0.2974
vn 0.0000 0.9547 -0.2975
vn 0.0715 -0.2776 -0.9580
vn 0.2238 0.4890 0.8431
vn 0.2237 0.4889 0.8432
vn 0.2237 0.4890 0.8431
vn -0.0720 0.2505 -0.9654
vn -0.0721 0.2505 -0.9654
vn -0.0959 0.9464 0.3085
vn -0.5321 0.7767 -0.3371
vn -0.5321 0.7767 -0.3372
vn -0.5321 -0.7767 -0.3371
vn -0.5321 -0.7767 -0.3372
vn 0.0938 -0.7111 0.6968
vn 0.0939 -0.7111 0.6968
vn -0.5737 -0.6252 0.5292
vn -0.5738 -0.6251 0.5292
vn 0.1794 -0.9690 -0.1698
vn -0.0959 -0.9464 0.3085
vn -0.0959 -0.9464 0.3086
vn 0.0000 -0.9547 -0.2974
vn 0.0000 -0.9547 -0.2975
vn 0.8302 -0.1253 -0.5432
vn 0.8302 -0.1254 -0.5432
vn 0.0715 0.2776 -0.9580
vn -0.0721 -0.2505 -0.9654
vn -0.0720 -0.2505 -0.9654
vn -0.1226 -0.3950 0.9105
vn -0.1227 -0.3949 0.9105
vn 0.2237 -0.4890 0.8431
vn 0.2238 -0.4890 0.8431
vn 0.2237 -0.4889 0.8431
vn 0.0939 0.7111 0.6968
vn 0.0938 0.7111 0.6968
s 1
f 3/1/1 87/2/2 121/3/3
f 12/4/4 4/5/4 120/6/4
f 100/7/5 5/8/5 102/9/5
f 106/10/6 103/11/6 7/12/6
f 6/13/7 99/14/7 107/15/7
f 92/16/8 8/17/8 138/18/8
f 10/19/9 124/20/10 134/21/10
f 13/22/11 119/23/11 128/24/11
f 11/25/12 133/26/12 139/27/13
f 15/28/14 33/29/14 37/30/14 32/31/14
f 2/32/15 83/33/15 88/34/15
f 125/35/16 9/36/17 91/37/17
f 18/38/18 19/39/18 34/40/18
f 40/41/19 21/42/19 27/43/19 30/44/19
f 24/45/20 22/46/20 39/47/20
f 168/48/21 215/49/21 53/50/21 41/51/21
f 35/52/22 23/53/22 26/54/22
f 16/55/23 31/56/23 29/57/23
f 28/58/24 20/59/24 17/60/24
f 36/61/25 25/62/25 38/63/25
f 52/64/26 204/65/26 42/66/26
f 44/67/27 172/68/27 169/69/27
f 184/70/28 190/71/28 45/72/28
f 194/73/29 46/74/29 189/75/29
f 47/76/30 193/77/30 185/78/30
f 176/79/31 226/80/31 48/81/31
f 50/82/32 222/83/33 210/84/32
f 54/85/34 214/86/34 205/87/34
f 49/88/35 225/89/36 219/90/37
f 55/91/38 71/92/38 77/93/38 73/94/38
f 43/95/39 203/96/40 173/97/40
f 209/98/41 177/99/42 51/100/41
f 78/101/43 70/102/43 67/103/43 62/104/43
f 69/105/44 57/106/44 63/107/44
f 74/108/45 80/109/45 66/110/45
f 81/111/46 126/112/46 131/113/46 93/114/46
f 64/115/47 79/116/48 61/117/47
f 58/118/49 68/119/49 72/120/49
f 56/121/50 76/122/50 59/123/50
f 75/124/51 65/125/51 60/126/51
f 95/127/52 116/128/53 86/129/53
f 96/130/54 85/131/54 82/132/54
f 89/133/55 137/134/55 112/135/55
f 105/136/56 110/137/56 104/138/56
f 111/139/57 108/140/57 98/141/57
f 114/142/9 135/143/10 123/144/9
f 130/145/58 117/146/58 94/147/58
f 132/148/11 129/149/11 118/150/11
f 113/151/59 140/152/60 136/153/61
f 141/154/62 157/155/62 163/156/62 159/157/62
f 97/158/63 101/159/63 109/160/63
f 122/161/64 90/162/65 115/163/64
f 164/164/66 156/165/66 153/166/66 148/167/66
f 155/168/67 143/169/67 149/170/67
f 160/171/68 166/172/68 152/173/68
f 167/174/69 179/175/69 218/176/69 212/177/69
f 150/178/70 165/179/71 147/180/70
f 144/181/72 154/182/72 158/183/72
f 142/184/73 162/185/73 145/186/73
f 161/187/74 151/188/74 146/189/74
f 181/190/75 174/191/76 202/192/77
f 180/193/78 170/194/78 171/195/78
f 175/196/79 198/197/79 223/198/79
f 191/199/80 188/200/80 197/201/80
f 196/202/81 186/203/81 192/204/81
f 200/205/32 211/206/33 221/207/33
f 216/208/82 182/209/82 207/210/82
f 217/211/34 206/212/34 213/213/34
f 201/214/83 220/215/83 224/216/84
f 227/217/85 245/218/85 249/219/85 244/220/85
f 183/221/86 195/222/86 187/223/86
f 208/224/87 199/225/88 178/226/88
f 230/227/89 231/228/89 246/229/89
f 252/230/90 233/231/90 239/232/90 242/233/90
f 236/234/91 234/235/91 251/236/91
f 247/237/92 235/238/92 238/239/92
f 228/240/93 243/241/93 241/242/93
f 240/243/94 232/244/94 229/245/94
f 248/246/95 237/247/95 250/248/95
f 1/249/96 2/32/15 3/1/1 4/5/97
f 5/8/5 6/250/7 7/12/6
f 8/17/8 9/251/17 10/252/9 11/25/12
f 12/4/97 13/22/98 14/253/99
f 15/254/14 16/255/100 17/60/24 18/38/18
f 19/39/101 20/59/24 21/256/19 22/257/20 23/53/22
f 24/258/20 25/259/102 26/260/103
f 27/43/19 28/261/24 29/57/23
f 30/44/104 31/56/23 32/262/105
f 33/29/14 34/263/18 35/264/103 36/61/106
f 37/265/14 38/266/25 39/47/20 40/41/107
f 41/267/108 42/66/109 43/95/39 44/67/27
f 45/72/28 46/268/110 47/76/111
f 48/269/31 49/270/35 50/82/32 51/100/41
f 52/64/112 53/271/113 54/85/114
f 55/272/38 56/121/50 57/106/44 58/273/115
f 59/123/116 60/126/51 61/274/47 62/104/43 63/107/44
f 64/275/47 65/125/51 66/276/117
f 67/103/118 68/277/49 69/105/44
f 70/278/119 71/279/120 72/120/121
f 73/94/38 74/108/122 75/280/51 76/281/50
f 77/282/38 78/283/118 79/116/47 80/284/45
f 81/285/46 82/286/54 83/33/15 84/287/123
f 85/288/124 86/289/52 87/2/1 88/34/125
f 89/133/55 90/290/65 91/291/17 92/16/8
f 93/114/126 94/147/127 95/127/52 96/130/54
f 97/292/128 98/293/129 99/14/130 100/294/5
f 101/295/128 102/9/131 103/11/6 104/138/56
f 105/136/132 106/10/133 107/296/134 108/297/135
f 109/160/63 110/298/136 111/139/129
f 112/299/55 113/151/59 114/300/9 115/163/64
f 116/301/52 117/302/58 118/150/11 119/23/11 120/6/4 121/3/1
f 122/303/64 123/144/9 124/20/10 125/35/16
f 126/304/46 127/305/99 128/24/11 129/149/11
f 130/145/137 131/113/138 132/306/139
f 133/307/12 134/21/10 135/143/10 136/308/61
f 137/134/55 138/18/8 139/27/13 140/309/60
f 141/310/62 142/311/73 143/312/67 144/313/140
f 145/186/141 146/314/74 147/180/70 148/167/66 149/170/67
f 150/178/70 151/315/74 152/316/142
f 153/166/143 154/317/72 155/168/67
f 156/318/144 157/155/145 158/183/146
f 159/319/62 160/320/147 161/187/74 162/321/73
f 163/156/62 164/322/143 165/323/70 166/172/68
f 167/324/148 168/325/21 169/69/27 170/326/78
f 171/327/149 172/68/150 173/97/39 174/328/75
f 175/329/79 176/79/31 177/330/42 178/331/88
f 179/175/151 180/193/78 181/190/75 182/209/152
f 183/332/86 184/70/153 185/78/111 186/333/154
f 187/334/155 188/200/80 189/75/29 190/335/153
f 191/199/156 192/336/157 193/337/158 194/73/159
f 195/222/86 196/202/81 197/338/80
f 198/197/79 199/225/88 200/339/32 201/214/83
f 202/340/75 203/96/39 204/65/26 205/87/34 206/212/34 207/341/82
f 208/342/87 209/98/41 210/84/32 211/206/33
f 212/177/69 213/343/34 214/344/34 215/345/21
f 216/208/152 217/346/160 218/176/69
f 219/347/37 220/348/83 221/207/33 222/83/33
f 223/349/79 224/350/84 225/89/36 226/80/31
f 227/351/85 228/352/161 229/353/94 230/227/89
f 231/354/162 232/244/94 233/231/90 234/235/91 235/355/92
f 236/234/91 237/356/163 238/357/164
f 239/232/90 240/243/94 241/358/93
f 242/359/165 243/241/93 244/220/166
f 245/360/85 246/229/89 247/237/164 248/246/167
f 249/219/85 250/361/95 251/362/91 252/363/168
f 126/364/138 81/365/138 84/366/169 127/367/169
f 82/286/54 85/288/170 88/34/171 83/33/15
f 83/33/171 2/32/15 1/249/169 84/287/99
f 2/32/15 88/34/15 87/2/1 3/1/1
f 137/134/55 89/133/55 92/16/8 138/18/8
f 14/253/99 1/249/99 4/5/4 12/4/97
f 100/294/172 102/368/173 101/369/128 97/292/174
f 103/11/6 106/10/6 105/136/56 104/138/56
f 98/293/129 108/370/175 107/15/176 99/14/130
f 5/371/5 100/294/5 99/14/7 6/13/7
f 106/10/6 7/12/177 6/250/130 107/296/130
f 102/9/5 5/8/5 7/12/178 103/11/6
f 91/291/17 9/251/17 8/17/8 92/16/8
f 86/289/53 116/301/53 121/3/3 87/2/2
f 90/372/65 122/303/64 125/35/16 91/37/17
f 127/305/99 14/253/99 13/22/11 128/24/11
f 12/4/4 120/6/4 119/23/11 13/22/11
f 124/20/10 10/19/9 9/36/17 125/35/16
f 10/19/9 134/21/10 133/307/12 11/373/12
f 123/144/9 135/143/10 134/21/10 124/20/10
f 128/24/11 119/23/11 118/150/11 129/149/11
f 3/1/1 121/3/3 120/6/4 4/5/4
f 136/374/61 140/309/60 139/27/13 133/26/12
f 11/25/12 139/27/13 138/18/8 8/17/8
f 33/29/14 15/28/14 18/375/101 34/263/18
f 29/57/23 31/56/23 30/44/104 27/43/19
f 16/255/23 29/376/23 28/58/24 17/60/179
f 17/60/24 20/59/24 19/39/18 18/38/18
f 31/377/23 16/378/23 15/28/14 32/31/105
f 20/379/24 28/261/24 27/43/19 21/42/19
f 26/380/103 23/381/22 22/46/20 24/45/20
f 40/41/107 30/44/107 32/262/14 37/265/14
f 25/62/25 36/61/106 35/264/103 26/382/103
f 24/45/20 39/47/20 38/266/25 25/383/25
f 34/40/18 19/39/18 23/53/22 35/52/22
f 39/47/20 22/46/20 21/42/19 40/41/19
f 37/30/14 33/29/14 36/61/25 38/63/25
f 215/49/113 168/48/113 167/384/180 212/385/180
f 169/69/27 172/68/181 171/327/182 170/326/78
f 168/48/21 41/51/113 44/386/27 169/387/181
f 43/95/39 173/97/39 172/68/27 44/67/27
f 226/80/31 176/79/31 175/329/79 223/349/79
f 52/388/112 42/389/26 41/51/21 53/50/113
f 183/332/183 187/390/184 190/71/153 184/70/185
f 188/200/80 191/199/80 194/73/29 189/75/29
f 185/78/111 193/77/186 192/391/187 186/333/154
f 47/76/30 185/78/30 184/70/28 45/72/28
f 193/337/30 47/392/30 46/74/159 194/73/29
f 189/75/29 46/74/188 45/393/28 190/335/28
f 176/394/31 48/269/31 51/100/41 177/99/42
f 173/97/40 203/96/40 202/340/77 174/328/76
f 177/99/42 209/98/41 208/342/87 178/395/88
f 214/396/34 54/397/34 53/50/21 215/49/21
f 54/85/34 205/87/34 204/65/26 52/64/26
f 209/98/41 51/100/41 50/82/32 210/84/32
f 49/270/35 219/347/37 222/83/33 50/82/32
f 210/84/32 222/83/33 221/207/33 211/206/33
f 213/213/34 206/212/34 205/87/34 214/86/34
f 42/66/26 204/65/26 203/96/40 43/95/39
f 219/90/37 225/89/36 224/350/84 220/398/83
f 48/81/31 226/80/31 225/89/36 49/88/35
f 76/281/50 56/399/116 55/91/38 73/94/38
f 67/400/118 70/278/119 72/120/49 68/119/49
f 57/106/189 69/105/44 68/277/49 58/273/49
f 56/121/50 59/123/50 63/107/44 57/106/44
f 71/92/120 55/91/38 58/401/49 72/402/121
f 62/104/43 67/103/43 69/105/44 63/107/44
f 64/275/47 61/274/47 60/126/51 65/125/51
f 77/93/38 71/92/190 70/403/118 78/404/118
f 65/405/191 75/280/51 74/108/122 66/110/45
f 66/406/45 80/284/45 79/116/47 64/115/47
f 75/124/51 60/126/51 59/123/50 76/122/50
f 78/283/43 62/407/43 61/117/47 79/116/48
f 80/109/45 74/108/45 73/94/38 77/93/38
f 81/111/46 93/114/138 96/130/54 82/132/170
f 95/127/52 86/129/52 85/131/54 96/130/54
f 130/145/137 94/147/58 93/114/46 131/113/138
f 111/139/57 98/141/57 97/158/63 109/160/63
f 108/140/57 111/139/57 110/298/132 105/408/56
f 104/409/56 110/298/192 109/160/63 101/159/63
f 89/410/55 112/299/55 115/163/64 90/162/65
f 129/411/11 132/306/11 131/113/46 126/112/46
f 132/148/11 118/150/11 117/302/58 130/412/58
f 122/303/64 115/413/64 114/142/9 123/144/9
f 113/151/59 136/153/61 135/414/10 114/300/9
f 94/147/58 117/146/58 116/128/53 95/127/52
f 112/299/55 137/415/55 140/152/60 113/151/59
f 162/321/73 142/311/141 141/310/62 159/319/62
f 153/166/143 156/165/144 158/416/72 154/317/72
f 143/169/193 155/168/67 154/317/72 144/417/72
f 142/184/73 145/186/73 149/170/67 143/169/67
f 157/155/145 141/154/62 144/181/72 158/183/146
f 148/167/66 153/166/66 155/168/67 149/170/67
f 150/178/70 147/180/70 146/314/74 151/315/74
f 163/156/62 157/155/194 156/318/143 164/322/143
f 151/188/195 161/187/74 160/320/147 152/418/68
f 152/173/68 166/172/68 165/323/70 150/419/70
f 161/187/74 146/189/74 145/420/73 162/321/73
f 164/164/66 148/167/66 147/180/70 165/179/71
f 166/172/68 160/171/68 159/157/62 163/156/62
f 170/194/182 180/193/78 179/175/180 167/174/69
f 180/193/78 171/195/78 174/191/75 181/190/75
f 218/176/69 179/175/69 182/209/82 216/208/152
f 195/222/86 183/221/86 186/203/81 196/202/81
f 191/421/80 197/338/196 196/202/154 192/204/154
f 187/223/86 195/222/86 197/338/197 188/422/80
f 178/226/88 199/225/88 198/197/79 175/196/79
f 212/177/69 218/176/69 217/346/34 213/343/34
f 216/423/82 207/341/82 206/212/34 217/211/34
f 211/206/33 200/205/32 199/424/88 208/342/87
f 200/339/32 221/425/33 220/215/83 201/214/83
f 181/190/75 202/192/77 207/210/82 182/209/82
f 201/214/83 224/216/84 223/198/79 198/197/79
f 245/360/85 227/351/85 230/227/162 246/229/89
f 241/358/93 243/426/93 242/233/165 239/232/90
f 228/427/93 241/358/93 240/243/94 229/245/198
f 229/245/94 232/244/94 231/354/89 230/428/89
f 243/241/93 228/240/93 227/217/85 244/220/166
f 232/244/94 240/243/94 239/232/90 233/231/90
f 238/357/164 235/355/92 234/235/91 236/234/91
f 252/363/168 242/359/168 244/220/85 249/219/85
f 237/247/95 248/246/167 247/237/164 238/239/164
f 236/429/91 251/362/91 250/361/95 237/430/95
f 246/229/89 231/228/89 235/238/92 247/237/92
f 251/236/91 234/235/91 233/231/90 252/230/90
f 249/431/85 245/360/85 248/246/95 250/248/95
f 84/366/99 1/432/99 14/433/99 127/367/99
f 281/434/199 254/435/199 256/436/199 305/437/199
f 255/438/200 280/439/200 277/440/201
f 258/441/202 295/442/202 306/443/202
f 289/444/199 259/445/199 272/446/199
f 260/447/203 288/448/203 302/449/203
f 261/450/204 301/451/204 273/452/204
f 315/453/205 262/454/205 267/455/205 331/456/206
f 318/457/207 344/458/207 265/459/207 264/460/207
f 263/461/208 314/462/209 319/463/208
f 266/464/210 343/465/210 332/466/210
f 324/467/207 311/468/207 268/469/207
f 270/470/211 339/471/211 325/472/211
f 269/473/205 310/474/205 340/475/205
f 286/476/212 271/477/212 297/478/212
f 282/479/212 304/480/212 290/481/212 285/482/212
f 284/483/213 278/484/214 279/485/213
f 299/486/203 303/487/203 287/488/203
f 323/489/215 334/490/215 308/491/215
f 275/492/216 283/493/216 292/494/216 293/495/216
f 298/496/216 274/497/216 300/498/216
f 291/499/202 307/500/202 294/501/202
f 317/502/215 321/503/215 327/504/215 341/505/215
f 322/506/217 316/507/218 313/508/218
f 335/509/211 326/510/211 338/511/211
f 312/512/219 330/513/220 328/514/221 320/515/221
f 336/516/220 337/517/220 309/518/220
f 329/519/210 333/520/210 342/521/210
f 253/522/204 254/523/199 255/524/201
f 256/525/199 257/526/204 258/527/202
f 259/528/199 260/447/203 261/450/204
f 262/529/205 263/461/208 264/460/207
f 265/459/207 266/464/210 267/530/205
f 268/469/207 269/531/205 270/532/211
f 271/533/212 272/446/199 273/534/204 274/535/216
f 275/536/216 276/537/204 277/440/200 278/538/213
f 279/539/214 280/439/201 281/434/199 282/540/212
f 283/493/216 284/483/214 285/482/212
f 286/541/212 287/488/203 288/448/203 289/542/199
f 290/481/212 291/543/202 292/494/216
f 293/544/216 294/501/202 295/442/202 296/545/204
f 297/478/212 298/496/216 299/546/203
f 300/547/216 301/451/204 302/449/203 303/487/203
f 304/548/212 305/437/199 306/443/202 307/500/202
f 308/549/215 309/550/220 310/551/205 311/468/207
f 312/552/219 313/553/218 314/462/209 315/554/205
f 316/555/218 317/556/215 318/457/207 319/463/208
f 320/515/221 321/503/215 322/506/217
f 323/557/215 324/558/207 325/472/211 326/510/211
f 327/504/215 328/514/221 329/559/210
f 330/560/220 331/561/206 332/466/210 333/520/210
f 334/490/215 335/562/211 336/516/220
f 337/563/220 338/511/211 339/471/211 340/475/205
f 341/564/215 342/521/210 343/465/210 344/458/207
f 296/565/204 276/566/222 275/567/223 293/568/216
f 277/440/200 280/439/201 279/539/214 278/538/224
f 304/548/212 282/540/212 281/434/199 305/437/199
f 255/524/201 277/569/200 276/566/204 253/522/204
f 280/439/200 255/438/200 254/435/199 281/434/199
f 256/525/199 254/523/199 253/522/204 257/526/204
f 271/533/212 286/570/225 289/444/199 272/446/199
f 272/571/226 259/528/199 261/450/204 273/452/222
f 273/452/204 301/451/204 300/547/216 274/572/227
f 257/526/204 296/565/228 295/573/202 258/527/202
f 305/437/199 256/436/199 258/441/202 306/443/202
f 260/447/203 302/449/203 301/451/204 261/450/204
f 288/448/203 260/447/203 259/528/199 289/542/226
f 294/501/202 307/500/202 306/443/202 295/442/202
f 302/449/203 288/448/203 287/488/203 303/487/203
f 330/574/220 312/575/219 315/453/205 331/456/206
f 313/553/218 316/555/218 319/463/208 314/462/209
f 344/458/207 318/457/207 317/556/215 341/564/215
f 262/529/205 315/554/205 314/462/209 263/461/208
f 318/457/207 264/460/207 263/461/208 319/463/208
f 267/530/205 262/529/205 264/460/207 265/459/207
f 311/468/207 324/467/229 323/576/215 308/549/215
f 310/551/230 269/531/205 268/469/207 311/468/231
f 309/577/220 337/563/220 340/475/205 310/474/205
f 266/464/210 332/466/210 331/561/206 267/530/205
f 343/465/210 266/464/210 265/459/207 344/458/207
f 269/473/205 340/475/205 339/471/211 270/470/211
f 324/467/231 268/469/207 270/532/211 325/578/211
f 332/466/210 343/465/210 342/521/210 333/520/210
f 338/511/211 326/510/211 325/472/211 339/471/211
f 283/493/216 275/492/216 278/484/213 284/483/214
f 282/479/212 285/482/212 284/483/213 279/485/213
f 292/494/216 283/493/216 285/482/212 290/481/212
f 274/497/223 298/496/216 297/478/212 271/477/232
f 291/543/202 294/579/202 293/495/233 292/494/216
f 307/580/202 291/543/202 290/481/212 304/480/212
f 298/496/216 300/498/216 303/581/203 299/546/203
f 286/476/232 297/478/212 299/546/203 287/582/203
f 322/506/217 313/508/218 312/512/219 320/515/221
f 316/507/218 322/506/217 321/503/215 317/502/215
f 327/504/215 321/503/215 320/515/221 328/514/221
f 308/491/234 334/490/215 336/516/220 309/518/221
f 328/514/221 330/513/220 333/583/210 329/559/210
f 341/564/215 327/584/215 329/519/210 342/521/210
f 335/562/211 338/585/211 337/517/220 336/516/220
f 326/586/211 335/562/211 334/490/215 323/489/234
f 276/566/204 296/565/204 257/526/204 253/522/204
f 366/587/235 347/588/235 362/589/235
f 404/590/236 363/591/236 346/592/237
f 378/593/238 349/594/239 370/595/240
f 373/596/241 371/597/242 351/598/241
f 377/599/243 374/600/244 350/601/245
f 409/602/246 389/603/246 352/604/246
f 397/605/247 393/606/248 354/607/249
f 392/608/250 410/609/250 355/610/251
f 398/611/252 353/612/252 388/613/252
f 348/614/253 365/615/253 359/616/254
f 381/617/255 356/618/256 364/619/255
f 357/620/257 380/621/258 406/622/258
f 372/623/259 385/624/260 368/625/259
f 367/626/261 361/627/261 382/628/261
f 395/629/262 387/630/262 402/631/263
f 376/632/264 386/633/265 375/634/264
f 379/635/266 369/636/267 384/637/266
f 408/638/268 399/639/268 390/640/268
f 391/641/269 400/642/269 407/643/270
f 403/644/271 383/645/272 360/646/271
f 396/647/273 401/648/274 394/649/275
f 345/650/276 346/651/237 347/588/235 348/652/253
f 349/594/239 350/601/245 351/653/241
f 352/654/246 353/612/252 354/607/249 355/610/251
f 356/655/256 357/656/257 358/657/277 359/616/254
f 360/658/271 361/659/261 362/660/235 363/591/236
f 364/661/255 365/615/253 366/662/235 367/663/261
f 368/664/259 369/636/267 370/595/240 371/665/242
f 372/666/259 373/596/241 374/667/244 375/668/264
f 376/669/264 377/599/243 378/593/238 379/635/266
f 380/621/258 381/617/255 382/628/261 383/645/272
f 384/670/266 385/624/260 386/633/265
f 387/671/262 388/613/252 389/672/246 390/640/268
f 391/673/269 392/608/250 393/606/248 394/674/275
f 395/675/262 396/676/273 397/677/247 398/678/252
f 399/679/268 400/642/269 401/648/274 402/631/263
f 403/680/271 404/590/236 405/681/276 406/682/258
f 407/683/270 408/638/268 409/684/246 410/609/250
f 364/661/255 356/655/256 359/616/254 365/615/253
f 403/680/271 360/658/271 363/591/236 404/590/236
f 371/597/242 373/596/241 372/666/259 368/685/259
f 361/686/261 367/687/261 366/587/235 362/589/235
f 374/600/244 377/599/243 376/669/264 375/688/264
f 369/636/267 379/635/266 378/593/238 370/595/240
f 348/652/253 359/689/254 358/690/277 345/650/276
f 365/691/253 348/652/253 347/588/235 366/587/235
f 362/589/235 347/588/235 346/651/237 363/692/236
f 377/599/243 350/601/245 349/594/239 378/593/238
f 350/693/245 374/667/244 373/596/241 351/598/241
f 370/595/240 349/594/239 351/653/241 371/665/242
f 410/609/250 392/608/250 391/673/269 407/683/270
f 398/678/252 388/694/252 387/695/262 395/675/262
f 393/606/248 397/605/247 396/696/273 394/674/275
f 388/613/252 353/612/252 352/654/246 389/672/246
f 353/612/252 398/611/252 397/605/247 354/607/249
f 392/608/250 355/610/251 354/607/249 393/606/248
f 357/656/257 406/682/258 405/681/276 358/657/277
f 389/672/246 409/684/246 408/638/268 390/640/268
f 404/697/236 346/651/237 345/650/276 405/698/276
f 409/684/246 352/654/246 355/610/251 410/609/250
f 380/621/258 357/620/257 356/618/256 381/617/255
f 367/626/261 382/628/261 381/617/255 364/619/255
f 360/646/271 383/645/272 382/628/261 361/627/261
f 379/699/266 384/670/266 386/633/265 376/632/264
f 385/624/260 372/623/259 375/634/264 386/633/265
f 368/625/259 385/624/260 384/670/266 369/700/267
f 390/701/268 399/679/268 402/631/263 387/630/262
f 401/648/274 396/647/273 395/629/262 402/631/263
f 394/649/275 401/648/274 400/642/269 391/641/269
f 406/622/258 380/621/258 383/645/272 403/644/271
f 407/683/270 400/702/269 399/639/268 408/638/268
f 358/690/277 405/698/276 345/650/276
